(footprint "HDMI_Micro-D_Molex_46765-1x01" (version 20211014) (generator pcbnew)
  (layer "F.Cu")
  (tedit 5A16B616)
  (descr "HDMI, Micro, Type D, THT, 0.4mm pitch, 19 ckt, right angle (http://www.molex.com/pdm_docs/sd/467651301_sd.pdf)")
  (tags "hdmi micro type d right angle tht")
  (attr smd)
  (fp_text reference "REF**" (at 0 -6.3) (layer "F.SilkS")
    (effects (font (size 1 1) (thickness 0.15)))
    (tstamp cd7db7a2-e0a1-41d3-aef5-93d975df90f6)
  )
  (fp_text value "HDMI_Micro-D_Molex_46765-1x01" (at 0 3.6) (layer "F.Fab")
    (effects (font (size 1 1) (thickness 0.15)))
    (tstamp 5f8eeb2e-457d-4bbd-a095-fb0f503e31b0)
  )
  (fp_text user "KEEPOUT" (at 0 -0.47) (layer "Cmts.User")
    (effects (font (size 0.7 0.7) (thickness 0.1)))
    (tstamp 5f6d0024-3f8d-406c-8052-a49f2b38c776)
  )
  (fp_text user "${REFERENCE}" (at 0 -3.3) (layer "F.Fab")
    (effects (font (size 1 1) (thickness 0.15)))
    (tstamp 77bf7c51-f139-4c4a-887b-d4a4918ba0a1)
  )
  (fp_line (start -3.31 -1.5) (end -3.31 -1.9) (layer "F.SilkS") (width 0.12) (tstamp 0f8b7ab6-07ba-444c-a591-846f63daaac8))
  (fp_line (start -3.31 -5.16) (end -2.15 -5.16) (layer "F.SilkS") (width 0.12) (tstamp 35fa7371-58aa-465e-95c1-55c1f3850fa5))
  (fp_line (start -3.31 2.46) (end 3.31 2.46) (layer "F.SilkS") (width 0.12) (tstamp 4ab41d83-7080-4475-ab3d-b17999ecfb42))
  (fp_line (start 3.31 1.5) (end 3.31 2.46) (layer "F.SilkS") (width 0.12) (tstamp 717a5063-1cbc-4a37-8593-b01d2c8edadf))
  (fp_line (start 3.31 -1.9) (end 3.31 -1.5) (layer "F.SilkS") (width 0.15) (tstamp 8ee87bf0-5bdf-40fe-86a0-882f732d3502))
  (fp_line (start 2.15 -5.16) (end 2.15 -5.36) (layer "F.SilkS") (width 0.12) (tstamp a730ae64-a85f-46be-9e2d-48b12fb8b8ba))
  (fp_line (start -3.31 -4.85) (end -3.31 -5.16) (layer "F.SilkS") (width 0.12) (tstamp af5e9313-d89f-4b6e-8c28-e4a65dcfe415))
  (fp_line (start 3.31 -5.16) (end 3.31 -4.85) (layer "F.SilkS") (width 0.12) (tstamp b496945b-c9cd-4ac7-939e-f0c9e4f7a553))
  (fp_line (start -3.31 2.46) (end -3.31 1.5) (layer "F.SilkS") (width 0.12) (tstamp d3f4761b-a4f1-4863-96fe-ef70380caa4f))
  (fp_line (start 2.15 -5.16) (end 3.31 -5.16) (layer "F.SilkS") (width 0.12) (tstamp e20ee0f8-5fca-4d7d-9bc4-8e2d9f564e63))
  (fp_line (start 1.65 1.7) (end 2.35 1) (layer "Dwgs.User") (width 0.1) (tstamp 259c6972-90e9-43e5-8848-d744fa584da0))
  (fp_line (start -2.35 1.7) (end 1.99 -2.64) (layer "Dwgs.User") (width 0.1) (tstamp 58f9c033-d5f1-42c4-b7ec-7cd121a6fec0))
  (fp_line (start -1.35 1.7) (end 2.35 -2) (layer "Dwgs.User") (width 0.1) (tstamp 5cc03691-9ee7-4e77-b7f9-6014d653db7e))
  (fp_line (start -2.35 -2.64) (end 2.35 -2.64) (layer "Dwgs.User") (width 0.1) (tstamp 86d7f47b-d867-464a-b128-19bf31e059c8))
  (fp_line (start 2.35 -2.64) (end 2.35 1.7) (layer "Dwgs.User") (width 0.1) (tstamp 8e011a0a-aa75-4a5e-9c6e-79d51799815e))
  (fp_line (start -2.35 -1.3) (end -1.01 -2.64) (layer "Dwgs.User") (width 0.1) (tstamp 9eca4a5b-1551-4e3f-bc1c-6616ca01be5d))
  (fp_line (start -2.35 0.7) (end 0.99 -2.64) (layer "Dwgs.User") (width 0.1) (tstamp b2407d68-c94f-4e73-a1de-16d60d8427c8))
  (fp_line (start -0.35 1.7) (end 2.35 -1) (layer "Dwgs.User") (width 0.1) (tstamp b3be65d2-a4a2-4b8d-a1e9-28cd8c1ed079))
  (fp_line (start -3 1.7) (end 3 1.7) (layer "Dwgs.User") (width 0.1) (tstamp bf7fb650-0ddd-4eba-8d79-38c20606ef31))
  (fp_line (start -2.35 -0.3) (end -0.01 -2.64) (layer "Dwgs.User") (width 0.1) (tstamp c5ba563e-90e3-4a4c-8ec6-25ec9cafba45))
  (fp_line (start 0.65 1.7) (end 2.35 0) (layer "Dwgs.User") (width 0.1) (tstamp cc07a31d-a2da-479d-b31a-ea7fb3a33470))
  (fp_line (start -2.35 1.7) (end -2.35 -2.64) (layer "Dwgs.User") (width 0.1) (tstamp e119ce86-6caa-4254-b9b5-4792fdd8032e))
  (fp_line (start 4.4 -5.7) (end -4.4 -5.7) (layer "F.CrtYd") (width 0.05) (tstamp 324c387a-d5b5-4c84-a641-d9951b967bb7))
  (fp_line (start 4.4 2.9) (end 4.4 -5.7) (layer "F.CrtYd") (width 0.05) (tstamp 3466ec35-5195-406c-adf2-c61e5222cf10))
  (fp_line (start -4.4 2.9) (end 4.4 2.9) (layer "F.CrtYd") (width 0.05) (tstamp 5a237678-e3bf-4584-905a-a040f24ea0f6))
  (fp_line (start -4.4 -5.7) (end -4.4 2.9) (layer "F.CrtYd") (width 0.05) (tstamp b62c086e-e4fa-43d0-89c0-1b02f612a0b6))
  (fp_line (start 1.8 -4.6) (end 1.3 -5.1) (layer "B.Fab") (width 0.1) (tstamp 29d5658b-5da1-41b5-b86a-a47901fc4e5f))
  (fp_line (start -3.25 -5.1) (end 1.3 -5.1) (layer "F.Fab") (width 0.1) (tstamp 247c9a58-d71c-4580-9aa0-313b74475bd8))
  (fp_line (start -3.25 2.4) (end -3.25 -5.1) (layer "F.Fab") (width 0.1) (tstamp 543c681d-2140-4032-aa3a-cdf473f486df))
  (fp_line (start 2.3 -5.1) (end 3.25 -5.1) (layer "F.Fab") (width 0.1) (tstamp 77f618b6-d6aa-481a-a872-915ac390c1fa))
  (fp_line (start 1.8 -4.6) (end 2.3 -5.1) (layer "F.Fab") (width 0.1) (tstamp d68e53a9-a15e-4e67-af67-9924f4f5a670))
  (fp_line (start 3.25 2.4) (end -3.25 2.4) (layer "F.Fab") (width 0.1) (tstamp ef2de82e-0e08-46db-9091-7ffbaee800a7))
  (fp_line (start 3.25 -5.1) (end 3.25 2.4) (layer "F.Fab") (width 0.1) (tstamp fb79b569-7f7e-43b2-81b2-e1ffa11ed109))
  (pad "1" smd rect (at 1.8 -4.775) (size 0.23 0.85) (layers "F.Cu" "F.Paste" "F.Mask") (tstamp 137d0c87-9f17-41b0-a7fc-84aa67ea864c))
  (pad "2" smd rect (at 1.6 -3.55) (size 0.23 1) (layers "F.Cu" "F.Paste" "F.Mask") (tstamp 4d8d0d41-1fd9-4225-8115-fd53e06cf61d))
  (pad "3" smd rect (at 1.4 -4.775) (size 0.23 0.85) (layers "F.Cu" "F.Paste" "F.Mask") (tstamp 73bab7ba-336d-4404-acf1-05bc4ada24e9))
  (pad "4" smd rect (at 1.2 -3.55) (size 0.23 1) (layers "F.Cu" "F.Paste" "F.Mask") (tstamp 2c063c41-0147-4153-8008-b5af9f7413f6))
  (pad "5" smd rect (at 1 -4.775) (size 0.23 0.85) (layers "F.Cu" "F.Paste" "F.Mask") (tstamp e46764dc-7bc8-4b5e-8194-c120261527c2))
  (pad "6" smd rect (at 0.8 -3.55) (size 0.23 1) (layers "F.Cu" "F.Paste" "F.Mask") (tstamp 44a67ab5-e40e-4f92-b93b-6dd224c34b73))
  (pad "7" smd rect (at 0.6 -4.775) (size 0.23 0.85) (layers "F.Cu" "F.Paste" "F.Mask") (tstamp 04b3fd00-242d-411b-8426-edeb868cfe13))
  (pad "8" smd rect (at 0.4 -3.55) (size 0.23 1) (layers "F.Cu" "F.Paste" "F.Mask") (tstamp 4eabfa80-914c-409c-8d90-e626c06aa535))
  (pad "9" smd rect (at 0.2 -4.775) (size 0.23 0.85) (layers "F.Cu" "F.Paste" "F.Mask") (tstamp 3b5c9ce9-1c3d-4f3d-abe0-79df502f756d))
  (pad "10" smd rect (at 0 -3.55) (size 0.23 1) (layers "F.Cu" "F.Paste" "F.Mask") (tstamp 19fb4d39-2f15-4a87-8c77-ffbbf46015c3))
  (pad "11" smd rect (at -0.2 -4.775) (size 0.23 0.85) (layers "F.Cu" "F.Paste" "F.Mask") (tstamp e6043cf5-93de-4bc5-98b6-fac95718d31b))
  (pad "12" smd rect (at -0.4 -3.55) (size 0.23 1) (layers "F.Cu" "F.Paste" "F.Mask") (tstamp c02b2dd8-09ac-41ae-8cdb-9e296897aa05))
  (pad "13" smd rect (at -0.6 -4.775) (size 0.23 0.85) (layers "F.Cu" "F.Paste" "F.Mask") (tstamp 94993599-11e7-4fc8-8d47-5f4a35b6879a))
  (pad "14" smd rect (at -0.8 -3.55) (size 0.23 1) (layers "F.Cu" "F.Paste" "F.Mask") (tstamp be20a90c-4735-4e7a-a1b2-1cb53e5604d5))
  (pad "15" smd rect (at -1 -4.775) (size 0.23 0.85) (layers "F.Cu" "F.Paste" "F.Mask") (tstamp e9d54acf-af90-4375-a148-bed6515f0b58))
  (pad "16" smd rect (at -1.2 -3.55) (size 0.23 1) (layers "F.Cu" "F.Paste" "F.Mask") (tstamp 0775b53c-de83-4173-af3f-75c842d6072a))
  (pad "17" smd rect (at -1.4 -4.775) (size 0.23 0.85) (layers "F.Cu" "F.Paste" "F.Mask") (tstamp 0e3d343d-b4f4-4f5f-b1f2-ad61199131fe))
  (pad "18" smd rect (at -1.6 -3.55) (size 0.23 1) (layers "F.Cu" "F.Paste" "F.Mask") (tstamp bfa7aedd-1142-4ac6-a5ad-85623f03ef47))
  (pad "19" smd rect (at -1.8 -4.775) (size 0.23 0.85) (layers "F.Cu" "F.Paste" "F.Mask") (tstamp 34ff48d4-4244-4033-b648-bee25d568fe7))
  (pad "SH" thru_hole oval (at -3.1 0) (size 1.5 2.55) (drill oval 0.65 1.7) (layers *.Cu *.Mask) (tstamp 0bfe6a09-40a9-4e93-bcb7-b47daa2a62e9))
  (pad "SH" thru_hole oval (at 3.1 -3.36) (size 1.5 2.55) (drill oval 0.65 1.7) (layers *.Cu *.Mask) (tstamp 48698a7d-d726-47ce-aec9-a56dd920933e))
  (pad "SH" thru_hole oval (at 3.1 0) (size 1.5 2.55) (drill oval 0.65 1.7) (layers *.Cu *.Mask) (tstamp b53c4c10-b446-40ff-a393-cb85ef14b5ec))
  (pad "SH" thru_hole oval (at -3.1 -3.36) (size 1.5 2.55) (drill oval 0.65 1.7) (layers *.Cu *.Mask) (tstamp d4149c3a-fc6d-408b-912f-852372488bac))
  (model "${KICAD6_3DMODEL_DIR}/Connector_HDMI.3dshapes/HDMI_Micro-D_Molex_46765-1x01.wrl"
    (offset (xyz 0 0 0))
    (scale (xyz 1 1 1))
    (rotate (xyz 0 0 0))
  )
)
