(footprint "Atmel_ATSAMR21G18-MR210UA_NoRFPads" (version 20211014) (generator pcbnew)
  (layer "F.Cu")
  (tedit 5D3F050E)
  (descr "http://ww1.microchip.com/downloads/en/devicedoc/atmel-42475-atsamr21g18-mr210ua_datasheet.pdf")
  (tags "module wireless zigbee 802.15.4 flash crypto ATSAMR21G18 AT45DB041E  TECC508A U.Fi")
  (solder_mask_margin 0.1)
  (solder_paste_margin -0.05)
  (attr smd)
  (fp_text reference "REF**" (at -7 10.55) (layer "F.SilkS")
    (effects (font (size 1 1) (thickness 0.15)))
    (tstamp 0820fa83-044a-490e-b301-621f7b8dd4f3)
  )
  (fp_text value "Atmel_ATSAMR21G18-MR210UA_NoRFPads" (at 0 12) (layer "F.Fab")
    (effects (font (size 1.2 1.2) (thickness 0.15)))
    (tstamp 2ecf04da-ef70-4609-9766-64eadff07ef2)
  )
  (fp_text user "Layers with less than" (at 4.5 -7.75) (layer "Cmts.User")
    (effects (font (size 0.4 0.4) (thickness 0.08)))
    (tstamp 2e3d388b-eeec-42ba-bec2-d5ea1f3bfab9)
  )
  (fp_text user "shall not be filled" (at 4.5 -6.25) (layer "Cmts.User")
    (effects (font (size 0.4 0.4) (thickness 0.08)))
    (tstamp 3be30838-b10d-450c-b9bd-83502baf0eb6)
  )
  (fp_text user "0.5mm distance from top" (at 4.5 -7) (layer "Cmts.User")
    (effects (font (size 0.4 0.4) (thickness 0.08)))
    (tstamp 6713baf2-975d-4b73-abdb-aab1a8e2182a)
  )
  (fp_text user "KEEP-OUT Zone" (at 4.5 -8.5) (layer "Cmts.User")
    (effects (font (size 0.5 0.5) (thickness 0.1)))
    (tstamp 6e24d843-42c2-489b-9407-92b66866ee81)
  )
  (fp_text user "${REFERENCE}" (at 0 0) (layer "F.Fab")
    (effects (font (size 1 1) (thickness 0.15)))
    (tstamp 9aad0b82-e99a-47c5-889d-a9877442a687)
  )
  (fp_line (start -10.15 9.325) (end -10.15 9.65) (layer "F.SilkS") (width 0.12) (tstamp 0fd6ab39-a973-458b-aa2c-146edf5a03c6))
  (fp_line (start 10.15 -9.65) (end 10.15 -8.125) (layer "F.SilkS") (width 0.12) (tstamp 729219bc-c375-4099-b7dc-68ed006c45eb))
  (fp_line (start -10.15 -9.65) (end 10.15 -9.65) (layer "F.SilkS") (width 0.12) (tstamp 821fb487-e62f-4d57-89e6-f6e1d9f1f25e))
  (fp_line (start -10.65 -8.125) (end -10.15 -8.125) (layer "F.SilkS") (width 0.12) (tstamp a5e7eb55-63d6-4373-971a-421ba4ba70a3))
  (fp_line (start -10.15 -9.65) (end -10.15 -8.125) (layer "F.SilkS") (width 0.12) (tstamp c5491c44-736b-4348-923a-696bda6087d3))
  (fp_line (start -10.15 9.65) (end -4.225 9.65) (layer "F.SilkS") (width 0.12) (tstamp c56a5144-9ebf-456a-be49-eccc674a700e))
  (fp_line (start 10.15 9.65) (end 4.225 9.65) (layer "F.SilkS") (width 0.12) (tstamp cd2fde36-2822-4554-b0d3-e5667c477449))
  (fp_line (start 10.15 9.325) (end 10.15 9.65) (layer "F.SilkS") (width 0.12) (tstamp e91493b4-6c00-4068-8f0b-62a2ef101168))
  (fp_line (start 1 -9.5) (end 0 -8.5) (layer "Dwgs.User") (width 0.1) (tstamp 08589ae9-8ed9-4f97-963b-93a333785e49))
  (fp_line (start 5 -9.5) (end 1 -5.5) (layer "Dwgs.User") (width 0.1) (tstamp 17d6fbcf-4b66-4fe3-9f3c-a2b2df9ba923))
  (fp_line (start 10 -9.5) (end 6 -5.5) (layer "Dwgs.User") (width 0.1) (tstamp 28383270-da77-4142-90b3-d179f6ec5de3))
  (fp_line (start 7 -9.5) (end 3 -5.5) (layer "Dwgs.User") (width 0.1) (tstamp 4e6bdf0a-8d07-471c-9328-c414c454e85a))
  (fp_line (start 0 -5.5) (end 8.75 -5.5) (layer "Dwgs.User") (width 0.1) (tstamp 7a4c17ce-c0f7-41c9-b1c8-1baa15040746))
  (fp_line (start 10 -9.5) (end 10 -8) (layer "Dwgs.User") (width 0.1) (tstamp 807dfb40-7880-41f5-b1dd-b1298301ae3e))
  (fp_line (start 8.75 -8) (end 8.75 -5.5) (layer "Dwgs.User") (width 0.1) (tstamp 82d416ec-d3d8-4a69-b66c-ba8c2560d46f))
  (fp_line (start 2 -9.5) (end 0 -7.5) (layer "Dwgs.User") (width 0.1) (tstamp 9736077b-7155-49e5-a2df-c673c172debc))
  (fp_line (start 9 -9.5) (end 5 -5.5) (layer "Dwgs.User") (width 0.1) (tstamp a5fe9f93-2bb7-4866-bc25-4a667263c49b))
  (fp_line (start 3 -9.5) (end 0 -6.5) (layer "Dwgs.User") (width 0.1) (tstamp a6a1124e-0830-43ad-80e5-043db94d2de4))
  (fp_line (start 10 -8) (end 8.75 -8) (layer "Dwgs.User") (width 0.1) (tstamp b2fc8e83-739c-4cc5-98f6-fb03219196e6))
  (fp_line (start 8 -5.5) (end 8.75 -6.25) (layer "Dwgs.User") (width 0.1) (tstamp b3d52990-ab37-48a4-b5f3-786e1ec8fb13))
  (fp_line (start 0 -9.5) (end 10 -9.5) (layer "Dwgs.User") (width 0.1) (tstamp b5761f53-0025-4fd9-bd0d-44ae944b88d3))
  (fp_line (start 6 -9.5) (end 2 -5.5) (layer "Dwgs.User") (width 0.1) (tstamp c2026ddf-000d-4eb8-a168-087ae2a33e51))
  (fp_line (start 9.5 -8) (end 10 -8.5) (layer "Dwgs.User") (width 0.1) (tstamp d593bc12-8e78-41bc-af25-69a95c045c71))
  (fp_line (start 0 -9.5) (end 0 -5.5) (layer "Dwgs.User") (width 0.1) (tstamp d9920050-de20-41e1-95db-6dbae31c3ed6))
  (fp_line (start 4 -9.5) (end 0 -5.5) (layer "Dwgs.User") (width 0.1) (tstamp ef37c9cb-7c58-468c-951d-a356c1f2e6ec))
  (fp_line (start 8.75 -7.25) (end 7 -5.5) (layer "Dwgs.User") (width 0.1) (tstamp efe88ef3-3239-46ec-abf3-f8155d32bd71))
  (fp_line (start 8 -9.5) (end 4 -5.5) (layer "Dwgs.User") (width 0.1) (tstamp f9309d7f-0785-4405-b693-9f8b2a99b276))
  (fp_line (start 10.25 9.2) (end 10.25 9.75) (layer "F.CrtYd") (width 0.05) (tstamp 03ccec6d-deab-4530-9029-4b53329335fe))
  (fp_line (start -11.1 -8) (end -11.1 9.2) (layer "F.CrtYd") (width 0.05) (tstamp 3674cdc2-41b2-4858-8de2-58474df85a9d))
  (fp_line (start -10.25 9.75) (end -4.1 9.75) (layer "F.CrtYd") (width 0.05) (tstamp 41124a75-bbae-4947-8ee2-79d7bd117880))
  (fp_line (start -10.25 9.2) (end -10.25 9.75) (layer "F.CrtYd") (width 0.05) (tstamp 43b3f459-9fcc-439a-aa7b-6bef3d489d6b))
  (fp_line (start -10.25 -8) (end -11.1 -8) (layer "F.CrtYd") (width 0.05) (tstamp 50706992-4637-4d92-b765-0cbd8723d6c6))
  (fp_line (start 10.25 -9.75) (end 10.25 -8) (layer "F.CrtYd") (width 0.05) (tstamp 5e181762-3c72-43cc-978b-9402db3d9cac))
  (fp_line (start 4.1 10.68) (end 4.1 9.75) (layer "F.CrtYd") (width 0.05) (tstamp 607d4668-62fd-4d18-bc3f-171c24708b74))
  (fp_line (start -10.25 -8) (end -10.25 -9.75) (layer "F.CrtYd") (width 0.05) (tstamp 81b62df6-a1c1-4dce-bf95-ac004feb5b4a))
  (fp_line (start 10.25 -8) (end 11.1 -8) (layer "F.CrtYd") (width 0.05) (tstamp 876c439c-8bf1-40ee-a5ea-b5b3a88605d1))
  (fp_line (start -10.25 -9.75) (end 10.25 -9.75) (layer "F.CrtYd") (width 0.05) (tstamp 9699d09a-3861-43c3-85ed-f047f69e39e9))
  (fp_line (start 10.25 9.2) (end 11.1 9.2) (layer "F.CrtYd") (width 0.05) (tstamp ab9b7694-b8bc-4557-931a-26380db18d6d))
  (fp_line (start 0 10.68) (end -4.1 10.68) (layer "F.CrtYd") (width 0.05) (tstamp b8580f2f-c5a2-40ef-ab95-ac30e5b9176d))
  (fp_line (start -10.25 9.2) (end -11.1 9.2) (layer "F.CrtYd") (width 0.05) (tstamp b949f28d-e897-4159-a3e4-9f89b773ba2b))
  (fp_line (start -4.1 10.68) (end -4.1 9.75) (layer "F.CrtYd") (width 0.05) (tstamp bd2558a7-a496-43a2-9a46-1e57a22125ec))
  (fp_line (start 0 10.68) (end 4.1 10.68) (layer "F.CrtYd") (width 0.05) (tstamp c1df7d2e-c6ea-414b-86ce-5c143fbf6e72))
  (fp_line (start 10.25 9.75) (end 4.1 9.75) (layer "F.CrtYd") (width 0.05) (tstamp f59b6d42-08dc-4c9b-8c9b-63b4b56f1070))
  (fp_line (start 11.1 -8) (end 11.1 9.2) (layer "F.CrtYd") (width 0.05) (tstamp fd6779cc-d990-4b9b-9588-67b89af5b956))
  (fp_line (start -10 9.5) (end 10 9.5) (layer "F.Fab") (width 0.1) (tstamp 08239a36-81c6-496c-adeb-06de5a1bf2db))
  (fp_line (start -10 -8.75) (end -9.25 -9.5) (layer "F.Fab") (width 0.1) (tstamp 2a6a04c2-a0da-4cd3-942d-feb650764b99))
  (fp_line (start 10 -9.5) (end -9.25 -9.5) (layer "F.Fab") (width 0.1) (tstamp 461ab6f9-47da-4580-a616-26409bf2ad19))
  (fp_line (start 10 9.5) (end 10 -9.5) (layer "F.Fab") (width 0.1) (tstamp 7573bde7-5788-4c0c-a970-27f359c53f9b))
  (fp_line (start -10 -8.75) (end -10 9.5) (layer "F.Fab") (width 0.1) (tstamp 767a63fe-1809-4ee9-8f8f-20f9ab06b418))
  (pad "1" smd rect (at -10 -7.4) (size 1.7 0.7) (layers "F.Cu" "F.Paste" "F.Mask") (tstamp 7e961cf7-45fb-41dc-beaa-0a1075970da1))
  (pad "2" smd rect (at -10 -6.4) (size 1.7 0.7) (layers "F.Cu" "F.Paste" "F.Mask") (tstamp ab1e6e98-3599-443a-bff7-a2b34e795b68))
  (pad "3" smd rect (at -10 -5.4) (size 1.7 0.7) (layers "F.Cu" "F.Paste" "F.Mask") (tstamp 4e1e8feb-a88c-473a-8aba-f788d376b21c))
  (pad "4" smd rect (at -10 -4.4) (size 1.7 0.7) (layers "F.Cu" "F.Paste" "F.Mask") (tstamp 897a2553-a057-4022-80f4-198cf6e00a27))
  (pad "5" smd rect (at -10 -3.4) (size 1.7 0.7) (layers "F.Cu" "F.Paste" "F.Mask") (tstamp 850eddc0-e160-4afa-b16f-fa840e10dc67))
  (pad "6" smd rect (at -10 -2.4) (size 1.7 0.7) (layers "F.Cu" "F.Paste" "F.Mask") (tstamp a2c461b0-2fbf-4cc2-ad1e-b684dd0f35da))
  (pad "7" smd rect (at -10 -1.4) (size 1.7 0.7) (layers "F.Cu" "F.Paste" "F.Mask") (tstamp be6f49c3-0e24-4be3-bc3d-0725347d40da))
  (pad "8" smd rect (at -10 -0.4) (size 1.7 0.7) (layers "F.Cu" "F.Paste" "F.Mask") (tstamp 9f4bdb52-b1cd-422b-a1a7-4c9e5663b851))
  (pad "9" smd rect (at -10 0.6) (size 1.7 0.7) (layers "F.Cu" "F.Paste" "F.Mask") (tstamp 74d1b9e8-6ad1-468e-af09-bf2f6f3fa2bb))
  (pad "10" smd rect (at -10 1.6) (size 1.7 0.7) (layers "F.Cu" "F.Paste" "F.Mask") (tstamp 3f8b6bb7-48dc-4113-a7eb-d057a8afa7b0))
  (pad "11" smd rect (at -10 2.6) (size 1.7 0.7) (layers "F.Cu" "F.Paste" "F.Mask") (tstamp 658d5701-3ecb-4194-88d6-10cec019bc41))
  (pad "12" smd rect (at -10 3.6) (size 1.7 0.7) (layers "F.Cu" "F.Paste" "F.Mask") (tstamp eda6c43b-1e61-4665-81b8-a95e81a387be))
  (pad "13" smd rect (at -10 4.6) (size 1.7 0.7) (layers "F.Cu" "F.Paste" "F.Mask") (tstamp 352a7bdf-eba8-4fa7-9a00-7c1426ed3466))
  (pad "14" smd rect (at -10 5.6) (size 1.7 0.7) (layers "F.Cu" "F.Paste" "F.Mask") (tstamp 69f0ea48-6851-44cf-b944-00d68aee6ab5))
  (pad "15" smd rect (at -10 6.6) (size 1.7 0.7) (layers "F.Cu" "F.Paste" "F.Mask") (tstamp f09dd464-2019-4596-ba9d-05236ba81741))
  (pad "16" smd rect (at -10 7.6) (size 1.7 0.7) (layers "F.Cu" "F.Paste" "F.Mask") (tstamp 178657c7-aec3-4362-97f3-967101f58bfa))
  (pad "17" smd rect (at -10 8.6) (size 1.7 0.7) (layers "F.Cu" "F.Paste" "F.Mask") (tstamp 1cd9fa73-a64f-4cf5-95c5-cf1a23af6674))
  (pad "18" smd rect (at -3.5 9.575) (size 0.7 1.7) (layers "F.Cu" "F.Paste" "F.Mask") (tstamp d31049e0-d677-44fc-8764-25a1e7a625e3))
  (pad "19" smd rect (at -2.5 9.575) (size 0.7 1.7) (layers "F.Cu" "F.Paste" "F.Mask") (tstamp 3450533e-5e0d-46e5-80b5-66ba4fb54966))
  (pad "20" smd rect (at -1.5 9.575) (size 0.7 1.7) (layers "F.Cu" "F.Paste" "F.Mask") (tstamp 1f8c676c-7b5f-418b-be08-bd4cc1a2fc40))
  (pad "21" smd rect (at -0.5 9.575) (size 0.7 1.7) (layers "F.Cu" "F.Paste" "F.Mask") (tstamp 7fbec2ed-1d6d-4dc1-9fdf-c0e49048c1ef))
  (pad "22" smd rect (at 0.5 9.575) (size 0.7 1.7) (layers "F.Cu" "F.Paste" "F.Mask") (tstamp 3ecf6a61-03b0-444a-ac9b-ea4bda47d4e5))
  (pad "23" smd rect (at 1.5 9.575) (size 0.7 1.7) (layers "F.Cu" "F.Paste" "F.Mask") (tstamp 0311f1cb-96a3-403b-87a0-0e93cae32b27))
  (pad "24" smd rect (at 2.5 9.575) (size 0.7 1.7) (layers "F.Cu" "F.Paste" "F.Mask") (tstamp 93b2e734-0450-4685-82fd-dc96833eafcf))
  (pad "25" smd rect (at 3.5 9.575) (size 0.7 1.7) (layers "F.Cu" "F.Paste" "F.Mask") (tstamp c7c1379e-a3ed-435c-a5b6-5417ee206ac1))
  (pad "26" smd rect (at 10 8.6) (size 1.7 0.7) (layers "F.Cu" "F.Paste" "F.Mask") (tstamp 1f2d1ed4-47f0-4b11-840f-393f18e74213))
  (pad "27" smd rect (at 10 7.6) (size 1.7 0.7) (layers "F.Cu" "F.Paste" "F.Mask") (tstamp caa56bd9-6c10-4bfb-b067-e04b63db1acf))
  (pad "28" smd rect (at 10 6.6) (size 1.7 0.7) (layers "F.Cu" "F.Paste" "F.Mask") (tstamp 0990bb77-77b9-4255-bd85-9ae3ccd7d1ec))
  (pad "29" smd rect (at 10 5.6) (size 1.7 0.7) (layers "F.Cu" "F.Paste" "F.Mask") (tstamp e4eed63f-5661-436c-9ec4-9e6e9f9b41f4))
  (pad "30" smd rect (at 10 4.6) (size 1.7 0.7) (layers "F.Cu" "F.Paste" "F.Mask") (tstamp eaacb126-3197-49ee-aba3-132be2d6d458))
  (pad "31" smd rect (at 10 3.6) (size 1.7 0.7) (layers "F.Cu" "F.Paste" "F.Mask") (tstamp 1df82864-214f-4ecc-8485-c2281146b8de))
  (pad "32" smd rect (at 10 2.6) (size 1.7 0.7) (layers "F.Cu" "F.Paste" "F.Mask") (tstamp 9fb64a50-8da3-4335-bde0-6814f3b73389))
  (pad "33" smd rect (at 10 1.6) (size 1.7 0.7) (layers "F.Cu" "F.Paste" "F.Mask") (tstamp 78c56e34-ccd9-43a1-bc57-176683f48283))
  (pad "34" smd rect (at 10 0.6) (size 1.7 0.7) (layers "F.Cu" "F.Paste" "F.Mask") (tstamp cbd71bd8-9bab-4f78-b815-fc859a6b1030))
  (pad "35" smd rect (at 10 -0.4) (size 1.7 0.7) (layers "F.Cu" "F.Paste" "F.Mask") (tstamp 40ef3138-b660-4ba8-a75b-1d9a610f4afb))
  (pad "36" smd rect (at 10 -1.4) (size 1.7 0.7) (layers "F.Cu" "F.Paste" "F.Mask") (tstamp 262ad7c2-8b24-44f8-ac73-e5e3e562ad2f))
  (pad "37" smd rect (at 10 -2.4) (size 1.7 0.7) (layers "F.Cu" "F.Paste" "F.Mask") (tstamp 2cb57d83-b5b4-4a03-8e75-b0834c36356c))
  (pad "38" smd rect (at 10 -3.4) (size 1.7 0.7) (layers "F.Cu" "F.Paste" "F.Mask") (tstamp 5ac9873d-3989-447c-939b-0dd8ece563be))
  (pad "39" smd rect (at 10 -4.4) (size 1.7 0.7) (layers "F.Cu" "F.Paste" "F.Mask") (tstamp 8c231345-ce16-4b9d-a720-a778050155fc))
  (pad "40" smd rect (at 10 -5.4) (size 1.7 0.7) (layers "F.Cu" "F.Paste" "F.Mask") (tstamp 5bbb2b25-553b-4018-a8f3-b7b56680ef46))
  (pad "41" smd rect (at 10 -6.4) (size 1.7 0.7) (layers "F.Cu" "F.Paste" "F.Mask") (tstamp f0bbe550-94fa-41c2-8de6-c999f135534e))
  (pad "42" smd rect (at 10 -7.4) (size 1.7 0.7) (layers "F.Cu" "F.Paste" "F.Mask") (tstamp 186183a9-3167-45e8-912a-3d8caf00fda0))
  (model "${KICAD6_3DMODEL_DIR}/RF_Module.3dshapes/Atmel_ATSAMR21G18-MR210UA_NoRFPads.wrl"
    (offset (xyz 0 0 0))
    (scale (xyz 1 1 1))
    (rotate (xyz 0 0 0))
  )
)
