(footprint "ESP-WROOM-02" (version 20211014) (generator pcbnew)
  (layer "F.Cu")
  (tedit 600DB352)
  (descr "https://www.espressif.com/sites/default/files/documentation/0c-esp-wroom-02_datasheet_en.pdf")
  (tags "ESP WROOM-02 espressif esp8266ex")
  (attr smd)
  (fp_text reference "REF**" (at -10.5 5.13 90) (layer "F.SilkS")
    (effects (font (size 1 1) (thickness 0.15)))
    (tstamp 40678ab1-a226-4468-92d5-584239dee7fd)
  )
  (fp_text value "ESP-WROOM-02" (at 0 8.33) (layer "F.Fab")
    (effects (font (size 1 1) (thickness 0.15)))
    (tstamp f2ce1a4a-bf01-484a-83e1-44c60699383f)
  )
  (fp_text user "Antenna" (at 0 -10) (layer "Cmts.User")
    (effects (font (size 1 1) (thickness 0.15)))
    (tstamp 7ef8f408-800d-47f9-b236-8508a21da774)
  )
  (fp_text user "KEEP-OUT ZONE" (at 0 -16) (layer "Cmts.User")
    (effects (font (size 1 1) (thickness 0.15)))
    (tstamp 9bc5e4e5-31fa-43b0-9228-fba62f146bce)
  )
  (fp_text user "5 mm" (at 7.8 -15.9 90) (layer "Cmts.User")
    (effects (font (size 0.5 0.5) (thickness 0.1)))
    (tstamp d82cf81c-95ca-4551-8be1-8a2b240ed0e8)
  )
  (fp_text user "5 mm" (at 11.8 -11.2) (layer "Cmts.User")
    (effects (font (size 0.5 0.5) (thickness 0.1)))
    (tstamp e61ea688-5cb7-4cba-b20c-8d43f0019d4b)
  )
  (fp_text user "${REFERENCE}" (at 0 0) (layer "F.Fab")
    (effects (font (size 1 1) (thickness 0.15)))
    (tstamp 0db5e114-1129-446d-a4a8-fe790a334d84)
  )
  (fp_line (start -9.12 -13.22) (end 9.12 -13.22) (layer "F.SilkS") (width 0.1) (tstamp 0222acb4-55a9-483d-8336-e72905682f11))
  (fp_line (start 9.12 6.7) (end 9.12 7) (layer "F.SilkS") (width 0.1) (tstamp 2777ef70-f0e7-4169-8851-18e832cef45f))
  (fp_line (start -9.12 7.02) (end -8.1 7.02) (layer "F.SilkS") (width 0.1) (tstamp 56c41676-bcab-4c90-a4a3-fd1aa7cabab1))
  (fp_line (start 8 7.02) (end 9.12 7.02) (layer "F.SilkS") (width 0.1) (tstamp 65f9e163-cd5f-4810-b05a-43bc9cc2365b))
  (fp_line (start -9.12 -13.22) (end -9.12 -7.2) (layer "F.SilkS") (width 0.1) (tstamp 6626d908-57db-4a80-ac08-5b3d94a5d484))
  (fp_line (start 9.12 -13.22) (end 9.12 -6.7) (layer "F.SilkS") (width 0.1) (tstamp 6cbae790-a246-4427-9215-b3880c4f3588))
  (fp_line (start -9.12 6.7) (end -9.12 7.02) (layer "F.SilkS") (width 0.1) (tstamp b8d96c32-e98e-479b-a455-04319a0b75e9))
  (fp_line (start -9.12 -7.2) (end -11 -7.2) (layer "F.SilkS") (width 0.1) (tstamp cdc38a74-5d2c-4880-a3fb-361893e4f9df))
  (fp_line (start -8 -18.1) (end -14 -13.255) (layer "Dwgs.User") (width 0.1) (tstamp 02c81f0e-e0c7-4904-ad44-6a8052b83f9c))
  (fp_line (start 14 -7.1) (end 14 -18.1) (layer "Dwgs.User") (width 0.1) (tstamp 0ec375c9-1dc8-44fb-8e68-c12b431e3abd))
  (fp_line (start 10 -18.1) (end -3.62 -7.1) (layer "Dwgs.User") (width 0.1) (tstamp 0f2f7f7b-5414-4c6b-afc2-d5bfb8c9cbe4))
  (fp_line (start 14 -10.025) (end 10.38 -7.1) (layer "Dwgs.User") (width 0.1) (tstamp 14266c32-7e8c-4ce8-89b0-29286a801f43))
  (fp_line (start -10 -18.1) (end -14 -14.87) (layer "Dwgs.User") (width 0.1) (tstamp 1f5d477f-8fc2-4771-ae68-e17f6f2ac8cf))
  (fp_line (start -14 -7.1) (end -14 -18.1) (layer "Dwgs.User") (width 0.1) (tstamp 2a40b1f3-d73d-492f-8d60-d4ce849030a5))
  (fp_line (start -12 -18.1) (end -14 -16.485) (layer "Dwgs.User") (width 0.1) (tstamp 2de28aff-9cbf-402c-afd1-d413029f4896))
  (fp_line (start 14 -13.255) (end 6.38 -7.1) (layer "Dwgs.User") (width 0.1) (tstamp 30c28727-4478-4051-b48f-26c6a90a8f8b))
  (fp_line (start 8 -18.1) (end -5.62 -7.1) (layer "Dwgs.User") (width 0.1) (tstamp 3b599818-c3b3-49d6-aa7e-39391bec6ea5))
  (fp_line (start -6 -18.1) (end -14 -11.64) (layer "Dwgs.User") (width 0.1) (tstamp 3c7a1a01-080c-4edb-9bae-5be88877feac))
  (fp_line (start 12 -18.1) (end -1.62 -7.1) (layer "Dwgs.User") (width 0.1) (tstamp 3da6135d-6aca-4465-82a8-c97dc2e6a942))
  (fp_line (start 14 -16.485) (end 2.38 -7.1) (layer "Dwgs.User") (width 0.1) (tstamp 564f1220-9e14-45b4-8b91-f978a5b0c0ef))
  (fp_line (start 0 -18.1) (end -13.62 -7.1) (layer "Dwgs.User") (width 0.1) (tstamp 755bc4e0-e6ee-483b-bba0-e878486f60b2))
  (fp_line (start -9 -13.1) (end 9 -13.1) (layer "Dwgs.User") (width 0.1) (tstamp 78b0d958-5e4f-4114-9a7f-cd50de0a7d48))
  (fp_line (start 4 -18.1) (end -9.62 -7.1) (layer "Dwgs.User") (width 0.1) (tstamp 850fe027-e056-4356-892b-633675c73793))
  (fp_line (start 2 -18.1) (end -11.62 -7.1) (layer "Dwgs.User") (width 0.1) (tstamp 8682a7a6-e0a7-4f81-b34c-72af1568494e))
  (fp_line (start 14 -14.87) (end 4.38 -7.1) (layer "Dwgs.User") (width 0.1) (tstamp 9158d46b-70b2-4155-a1bf-395194f6af36))
  (fp_line (start -2 -18.1) (end -14 -8.41) (layer "Dwgs.User") (width 0.1) (tstamp 95f48f5d-07cd-4123-9932-aa2598596b59))
  (fp_line (start 14 -11.64) (end 8.38 -7.1) (layer "Dwgs.User") (width 0.1) (tstamp 97a2524c-f420-44f8-a0c3-dbb4a7e66b1e))
  (fp_line (start 14 -18.1) (end -14 -18.1) (layer "Dwgs.User") (width 0.1) (tstamp ba2b08c6-c883-43ee-bb7b-4d8de67aef27))
  (fp_line (start 14 -7.1) (end -14 -7.1) (layer "Dwgs.User") (width 0.1) (tstamp bad80835-d1cf-4e96-a37f-5c32e30c0caf))
  (fp_line (start -9 -7.1) (end -9 -13.1) (layer "Dwgs.User") (width 0.1) (tstamp cc39eb9c-5c5c-44fa-a679-e37b3acabcab))
  (fp_line (start 9 -13.1) (end 9 -6.78) (layer "Dwgs.User") (width 0.1) (tstamp dbd018d9-c920-403f-b354-ae7ed2dba9f9))
  (fp_line (start -4 -18.1) (end -14 -10.025) (layer "Dwgs.User") (width 0.1) (tstamp e77b8526-8fa7-44e6-9c32-aeb34a9e7eef))
  (fp_line (start 14 -8.41) (end 12.38 -7.1) (layer "Dwgs.User") (width 0.1) (tstamp f36ba618-c711-42f9-b3be-a24394131c4d))
  (fp_line (start 14 -18.1) (end 0.38 -7.1) (layer "Dwgs.User") (width 0.1) (tstamp f6939635-fc84-4e71-b2e7-25cb6d0c8734))
  (fp_line (start -7.62 -7.1) (end 6 -18.1) (layer "Dwgs.User") (width 0.1) (tstamp fa50c3c8-d54d-4c65-b072-c05fd31727aa))
  (fp_line (start -13.8 -10.7) (end -9.2 -10.7) (layer "Cmts.User") (width 0.1) (tstamp 04d620e3-262b-407d-b4da-6f236e1d6eb2))
  (fp_line (start -13.8 -10.7) (end -13.6 -10.9) (layer "Cmts.User") (width 0.1) (tstamp 16991473-75d8-4c90-8526-2725a63e0d5a))
  (fp_line (start -9.2 -10.7) (end -9.4 -10.9) (layer "Cmts.User") (width 0.1) (tstamp 3464746d-ebd5-47d4-9c6b-70d72ce8ea87))
  (fp_line (start 8.3 -13.3) (end 8.1 -13.5) (layer "Cmts.User") (width 0.1) (tstamp 47a0b20d-44be-4b02-917b-cdab24fae1ff))
  (fp_line (start 13.8 -10.7) (end 13.6 -10.5) (layer "Cmts.User") (width 0.1) (tstamp 4e6238b6-a628-4cb5-811c-492feafdea38))
  (fp_line (start 9.2 -10.7) (end 9.4 -10.9) (layer "Cmts.User") (width 0.1) (tstamp 4f5841ce-8499-4b18-8a12-75a386cb9b9b))
  (fp_line (start -13.8 -10.7) (end -13.6 -10.5) (layer "Cmts.User") (width 0.1) (tstamp 6a19418b-5422-4a5e-8150-d3da55e4d9c2))
  (fp_line (start 8.3 -13.3) (end 8.5 -13.5) (layer "Cmts.User") (width 0.1) (tstamp 77833087-50b2-4256-9d6c-e3e5806bf455))
  (fp_line (start 9.2 -10.7) (end 9.4 -10.5) (layer "Cmts.User") (width 0.1) (tstamp 7ffe8167-a376-4e05-b20c-e58f0547a5da))
  (fp_line (start 8.3 -17.9) (end 8.5 -17.7) (layer "Cmts.User") (width 0.1) (tstamp 82d3ce26-a8dd-47c0-91e6-31451fd0f761))
  (fp_line (start -9.2 -10.7) (end -9.4 -10.5) (layer "Cmts.User") (width 0.1) (tstamp 9f14aa41-d015-4b20-ae7f-388caa875f3f))
  (fp_line (start 8.3 -13.3) (end 8.3 -17.9) (layer "Cmts.User") (width 0.1) (tstamp bf1b6ffd-0b81-4f69-b316-8816ad602b4a))
  (fp_line (start 8.3 -17.9) (end 8.1 -17.7) (layer "Cmts.User") (width 0.1) (tstamp cbed84d4-c991-4ae8-bb4f-6b38b757719a))
  (fp_line (start 13.8 -10.7) (end 13.6 -10.9) (layer "Cmts.User") (width 0.1) (tstamp e13ac23b-c569-4ac5-9362-5681d6ec91ab))
  (fp_line (start 9.2 -10.7) (end 13.8 -10.7) (layer "Cmts.User") (width 0.1) (tstamp f7e7af39-305e-4412-b37b-8df36a45951f))
  (fp_line (start 9.75 -6.85) (end 9.75 7.15) (layer "F.CrtYd") (width 0.05) (tstamp 0527b99d-2455-4f36-8914-fdda1b9f40b7))
  (fp_line (start 14.25 -18.35) (end 14.25 -6.85) (layer "F.CrtYd") (width 0.05) (tstamp 09c000e3-2d86-4f0f-a841-1d1ccc28f8f3))
  (fp_line (start -14.25 -18.35) (end -14.25 -6.85) (layer "F.CrtYd") (width 0.05) (tstamp 389a045d-a84c-449b-97e5-6ca1ecb94392))
  (fp_line (start -9.75 7.15) (end -9.75 -6.85) (layer "F.CrtYd") (width 0.05) (tstamp 5ed911a7-a1c4-4234-8c92-c7d000650d5b))
  (fp_line (start -14.25 -18.35) (end 14.25 -18.35) (layer "F.CrtYd") (width 0.05) (tstamp 97080f17-bf6b-45da-bdfb-247b79da55fb))
  (fp_line (start 9.75 -6.85) (end 14.25 -6.85) (layer "F.CrtYd") (width 0.05) (tstamp c7047a08-bb09-4498-8975-1d10c06601a4))
  (fp_line (start -9.75 7.15) (end 9.75 7.15) (layer "F.CrtYd") (width 0.05) (tstamp db3f49d6-4b99-4c85-a31b-96056cd311fd))
  (fp_line (start -14.25 -6.85) (end -9.75 -6.85) (layer "F.CrtYd") (width 0.05) (tstamp e2a77ce0-49ce-4728-b89b-7964b155bb89))
  (fp_line (start -9 -6.5) (end -8.5 -6) (layer "F.Fab") (width 0.1) (tstamp 45846b86-8334-4247-bf40-76daa1c70fb6))
  (fp_line (start -9 -5.5) (end -9 6.9) (layer "F.Fab") (width 0.1) (tstamp 522c3e88-f978-4e3f-9ee3-9825b6f135f1))
  (fp_line (start 9 6.9) (end 9 -13.1) (layer "F.Fab") (width 0.1) (tstamp 5da8266b-1892-4b3d-805a-1e63b28786f7))
  (fp_line (start -8.5 -6) (end -9 -5.5) (layer "F.Fab") (width 0.1) (tstamp 78b9d106-d104-4048-9770-556ad1be900e))
  (fp_line (start -9 -13.1) (end 9 -13.1) (layer "F.Fab") (width 0.1) (tstamp 86136fec-8653-4503-81f7-4ef8e277f968))
  (fp_line (start -9 -13.1) (end -9 -6.5) (layer "F.Fab") (width 0.1) (tstamp 8a77e958-c77f-4846-80e3-a40107aba4ad))
  (fp_line (start -9 6.9) (end 9 6.9) (layer "F.Fab") (width 0.1) (tstamp b83beee0-2ff5-4c6e-a8d2-7ca26d5f3e25))
  (pad "1" smd rect (at -8.75 -6) (size 1.5 0.9) (layers "F.Cu" "F.Paste" "F.Mask") (tstamp c3814f68-e482-4d7f-b0ad-86d1081acd71))
  (pad "2" smd rect (at -8.75 -4.5) (size 1.5 0.9) (layers "F.Cu" "F.Paste" "F.Mask") (tstamp 219c9893-5a85-45c5-8848-c55eeb10f3e6))
  (pad "3" smd rect (at -8.75 -3) (size 1.5 0.9) (layers "F.Cu" "F.Paste" "F.Mask") (tstamp 644cd9ab-91c8-482d-9c6d-e4a3418f6617))
  (pad "4" smd rect (at -8.75 -1.5) (size 1.5 0.9) (layers "F.Cu" "F.Paste" "F.Mask") (tstamp 06261f57-1ec8-47a8-9ecc-1baff5368086))
  (pad "5" smd rect (at -8.75 0) (size 1.5 0.9) (layers "F.Cu" "F.Paste" "F.Mask") (tstamp aca77633-dc3a-4541-b729-629c026d1a29))
  (pad "6" smd rect (at -8.75 1.5) (size 1.5 0.9) (layers "F.Cu" "F.Paste" "F.Mask") (tstamp 034554e7-bfbe-4c5c-8ee2-04b62ac75443))
  (pad "7" smd rect (at -8.75 3) (size 1.5 0.9) (layers "F.Cu" "F.Paste" "F.Mask") (tstamp 32822211-948d-40fd-bc14-bc5cdd2e6b2a))
  (pad "8" smd rect (at -8.75 4.5) (size 1.5 0.9) (layers "F.Cu" "F.Paste" "F.Mask") (tstamp 949247b5-80f5-4812-a2f4-a34f00e13784))
  (pad "9" smd rect (at -8.75 6) (size 1.5 0.9) (layers "F.Cu" "F.Paste" "F.Mask") (tstamp 78567d02-2284-4f67-9876-efc98655832e))
  (pad "10" smd rect (at 8.75 6) (size 1.5 0.9) (layers "F.Cu" "F.Paste" "F.Mask") (tstamp 8538e572-9bb9-4797-b564-dcb4695b2dff))
  (pad "11" smd rect (at 8.75 4.5) (size 1.5 0.9) (layers "F.Cu" "F.Paste" "F.Mask") (tstamp 4d59fb19-f4c7-4efe-ac79-c15574a26dea))
  (pad "12" smd rect (at 8.75 3) (size 1.5 0.9) (layers "F.Cu" "F.Paste" "F.Mask") (tstamp 75a7d238-6220-4d67-b2f4-cbea22230d5c))
  (pad "13" smd rect (at 8.75 1.5) (size 1.5 0.9) (layers "F.Cu" "F.Paste" "F.Mask") (tstamp b5f58d12-d4b7-494f-bea1-a0477dcfe68a))
  (pad "14" smd rect (at 8.75 0) (size 1.5 0.9) (layers "F.Cu" "F.Paste" "F.Mask") (tstamp d636be21-b912-4d44-9f3d-0f744d6ecd4e))
  (pad "15" smd rect (at 8.75 -1.5) (size 1.5 0.9) (layers "F.Cu" "F.Paste" "F.Mask") (tstamp 0a49d8d2-a306-4139-b262-0efb8a88b6aa))
  (pad "16" smd rect (at 8.75 -3) (size 1.5 0.9) (layers "F.Cu" "F.Paste" "F.Mask") (tstamp 3143dceb-f470-463a-b9dd-d94f9782fe3b))
  (pad "17" smd rect (at 8.75 -4.5) (size 1.5 0.9) (layers "F.Cu" "F.Paste" "F.Mask") (tstamp 7bcf70e5-839e-496c-a01c-e74f27feb611))
  (pad "18" smd rect (at 8.75 -6) (size 1.5 0.9) (layers "F.Cu" "F.Paste" "F.Mask") (tstamp 0d03c3fa-7a75-4e94-97da-34f96d1cfb5a))
  (pad "19" smd rect (at 1.1 0.61) (size 4 4) (layers "F.Cu" "F.Paste" "F.Mask") (tstamp 57864fe0-6cf0-444c-b20f-0860644b8944))
  (model "${KICAD6_3DMODEL_DIR}/RF_Module.3dshapes/ESP-WROOM-02.wrl"
    (offset (xyz 0 0 0))
    (scale (xyz 1 1 1))
    (rotate (xyz 0 0 0))
  )
)
