(footprint "MountingHole_4.3mm_M4_ISO7380" (version 20211014) (generator pcbnew)
  (layer "F.Cu")
  (tedit 56D1B4CB)
  (descr "Mounting Hole 4.3mm, no annular, M4, ISO7380")
  (tags "mounting hole 4.3mm no annular m4 iso7380")
  (attr exclude_from_pos_files exclude_from_bom)
  (fp_text reference "REF**" (at 0 -4.8) (layer "F.SilkS")
    (effects (font (size 1 1) (thickness 0.15)))
    (tstamp 49c990d6-c4b8-471d-9868-1d1830e1d713)
  )
  (fp_text value "MountingHole_4.3mm_M4_ISO7380" (at 0 4.8) (layer "F.Fab")
    (effects (font (size 1 1) (thickness 0.15)))
    (tstamp 96eb658f-9cbb-420f-8522-6921623b4c31)
  )
  (fp_text user "${REFERENCE}" (at 0.3 0) (layer "F.Fab")
    (effects (font (size 1 1) (thickness 0.15)))
    (tstamp 4707b554-52a9-40f1-82b6-60070682ede8)
  )
  (fp_circle (center 0 0) (end 3.8 0) (layer "Cmts.User") (width 0.15) (fill none) (tstamp e92d20b8-e7c8-4528-8f9c-852bcde69f4c))
  (fp_circle (center 0 0) (end 4.05 0) (layer "F.CrtYd") (width 0.05) (fill none) (tstamp 4c48256e-637d-4262-98e9-6be824b25b06))
  (pad "" np_thru_hole circle (at 0 0) (size 4.3 4.3) (drill 4.3) (layers *.Cu *.Mask) (tstamp 356e7f1d-3939-495e-990a-e929a8abd53b))
)
