(footprint "MountingHole_6.4mm_M6_ISO7380_Pad_TopOnly" (version 20211014) (generator pcbnew)
  (layer "F.Cu")
  (tedit 56D1B4CB)
  (descr "Mounting Hole 6.4mm, M6, ISO7380")
  (tags "mounting hole 6.4mm m6 iso7380")
  (attr exclude_from_pos_files exclude_from_bom)
  (fp_text reference "REF**" (at 0 -6.25) (layer "F.SilkS")
    (effects (font (size 1 1) (thickness 0.15)))
    (tstamp e8cbed46-3098-4579-be27-4b1a85359961)
  )
  (fp_text value "MountingHole_6.4mm_M6_ISO7380_Pad_TopOnly" (at 0 6.25) (layer "F.Fab")
    (effects (font (size 1 1) (thickness 0.15)))
    (tstamp 7eb88244-f6f7-4f84-be16-013cc383c5cb)
  )
  (fp_text user "${REFERENCE}" (at 0.3 0) (layer "F.Fab")
    (effects (font (size 1 1) (thickness 0.15)))
    (tstamp 8bf937f0-baf8-4eb9-bb2e-ecd5faa9d06c)
  )
  (fp_circle (center 0 0) (end 5.25 0) (layer "Cmts.User") (width 0.15) (fill none) (tstamp 4fccc284-2972-407c-96d5-cf110f982d05))
  (fp_circle (center 0 0) (end 5.5 0) (layer "F.CrtYd") (width 0.05) (fill none) (tstamp 101a0c53-257e-44b7-ba5f-84cdbf5bed0c))
  (pad "1" thru_hole circle (at 0 0) (size 6.8 6.8) (drill 6.4) (layers *.Cu *.Mask) (tstamp 7a89bf80-af6d-4116-bade-3751a9d6717a))
  (pad "1" connect circle (at 0 0) (size 10.5 10.5) (layers "F.Cu" "F.Mask") (tstamp f6ad14a4-6588-433e-99af-2210b4d91646))
)
