(footprint "MountingHole_2.1mm" (version 20211014) (generator pcbnew)
  (layer "F.Cu")
  (tedit 5B924765)
  (descr "Mounting Hole 2.1mm, no annular")
  (tags "mounting hole 2.1mm no annular")
  (attr exclude_from_pos_files exclude_from_bom)
  (fp_text reference "REF**" (at 0 -3.2) (layer "F.SilkS")
    (effects (font (size 1 1) (thickness 0.15)))
    (tstamp 5c387287-9ac0-4cc4-9497-9ebc258c1a43)
  )
  (fp_text value "MountingHole_2.1mm" (at 0 3.2) (layer "F.Fab")
    (effects (font (size 1 1) (thickness 0.15)))
    (tstamp d6364151-0fc9-496d-88d1-222e420f79ca)
  )
  (fp_text user "${REFERENCE}" (at 0.3 0) (layer "F.Fab")
    (effects (font (size 1 1) (thickness 0.15)))
    (tstamp 5ba811d1-dacc-41d4-89f4-f2b39abbd10e)
  )
  (fp_circle (center 0 0) (end 2.1 0) (layer "Cmts.User") (width 0.15) (fill none) (tstamp ed8e570a-378c-4775-a181-ac6bcc14fb86))
  (fp_circle (center 0 0) (end 2.35 0) (layer "F.CrtYd") (width 0.05) (fill none) (tstamp 4ab661cc-c5d2-4d56-ab04-8b7ea2160825))
  (pad "" np_thru_hole circle (at 0 0) (size 2.1 2.1) (drill 2.1) (layers *.Cu *.Mask) (tstamp 201d79da-8a4c-4b6f-916f-5485963d9ace))
)
