(footprint "MountingHole_6.4mm_M6_Pad_TopBottom" (version 20211014) (generator pcbnew)
  (layer "F.Cu")
  (tedit 56D1B4CB)
  (descr "Mounting Hole 6.4mm, M6")
  (tags "mounting hole 6.4mm m6")
  (attr exclude_from_pos_files exclude_from_bom)
  (fp_text reference "REF**" (at 0 -7.4) (layer "F.SilkS")
    (effects (font (size 1 1) (thickness 0.15)))
    (tstamp c4394f49-f248-4bfa-9cce-073990c214af)
  )
  (fp_text value "MountingHole_6.4mm_M6_Pad_TopBottom" (at 0 7.4) (layer "F.Fab")
    (effects (font (size 1 1) (thickness 0.15)))
    (tstamp 444005d4-b847-4ab0-973e-ce91ee2dc0e5)
  )
  (fp_text user "${REFERENCE}" (at 0.3 0) (layer "F.Fab")
    (effects (font (size 1 1) (thickness 0.15)))
    (tstamp 38dbbd14-22ca-4b9c-bd1f-bad52026a759)
  )
  (fp_circle (center 0 0) (end 6.4 0) (layer "Cmts.User") (width 0.15) (fill none) (tstamp 87521af2-be27-4404-bf17-8e97fbcbc99d))
  (fp_circle (center 0 0) (end 6.65 0) (layer "F.CrtYd") (width 0.05) (fill none) (tstamp a0d42587-e8f9-4ba0-9bd2-4ea0ed35b9e6))
  (pad "1" connect circle (at 0 0) (size 12.8 12.8) (layers "F.Cu" "F.Mask") (tstamp 209d2c7d-5d84-4a82-9a91-e053c8fa0ca5))
  (pad "1" thru_hole circle (at 0 0) (size 6.8 6.8) (drill 6.4) (layers *.Cu *.Mask) (tstamp 4c3520f8-4fb0-46c9-b048-13db331a1b3d))
  (pad "1" connect circle (at 0 0) (size 12.8 12.8) (layers "B.Cu" "B.Mask") (tstamp fb3e9019-c742-44ff-8a8a-3f487017e448))
)
