(footprint "MountingHole_4.5mm_Pad_TopBottom" (version 20211014) (generator pcbnew)
  (layer "F.Cu")
  (tedit 56D1B4CB)
  (descr "Mounting Hole 4.5mm")
  (tags "mounting hole 4.5mm")
  (attr exclude_from_pos_files exclude_from_bom)
  (fp_text reference "REF**" (at 0 -5.5) (layer "F.SilkS")
    (effects (font (size 1 1) (thickness 0.15)))
    (tstamp 392af864-f1c5-4714-a572-9ece52e71bce)
  )
  (fp_text value "MountingHole_4.5mm_Pad_TopBottom" (at 0 5.5) (layer "F.Fab")
    (effects (font (size 1 1) (thickness 0.15)))
    (tstamp 3e428b8e-7338-4f83-800c-ae3d22dd3306)
  )
  (fp_text user "${REFERENCE}" (at 0.3 0) (layer "F.Fab")
    (effects (font (size 1 1) (thickness 0.15)))
    (tstamp 5b22ce5a-f512-4c05-845c-5e31b9fdf50c)
  )
  (fp_circle (center 0 0) (end 4.5 0) (layer "Cmts.User") (width 0.15) (fill none) (tstamp 347c0061-3f9c-4221-adc9-581f6607d22a))
  (fp_circle (center 0 0) (end 4.75 0) (layer "F.CrtYd") (width 0.05) (fill none) (tstamp fd4505b6-5a4b-4f3c-aa77-ae8361931366))
  (pad "1" thru_hole circle (at 0 0) (size 4.9 4.9) (drill 4.5) (layers *.Cu *.Mask) (tstamp 8326a010-3b1e-49cf-a23a-6f2dd190dd26))
  (pad "1" connect circle (at 0 0) (size 9 9) (layers "F.Cu" "F.Mask") (tstamp e4a1cab5-0979-43b2-8fcf-b05ef7d46b58))
  (pad "1" connect circle (at 0 0) (size 9 9) (layers "B.Cu" "B.Mask") (tstamp fd996176-3fbb-4320-98dc-f92608ffead7))
)
