(footprint "MountingHole_5.3mm_M5_ISO14580_Pad_TopOnly" (version 20211014) (generator pcbnew)
  (layer "F.Cu")
  (tedit 56D1B4CB)
  (descr "Mounting Hole 5.3mm, M5, ISO14580")
  (tags "mounting hole 5.3mm m5 iso14580")
  (attr exclude_from_pos_files exclude_from_bom)
  (fp_text reference "REF**" (at 0 -5.25) (layer "F.SilkS")
    (effects (font (size 1 1) (thickness 0.15)))
    (tstamp 098bafbf-9c05-4411-80ac-b8ed988df25f)
  )
  (fp_text value "MountingHole_5.3mm_M5_ISO14580_Pad_TopOnly" (at 0 5.25) (layer "F.Fab")
    (effects (font (size 1 1) (thickness 0.15)))
    (tstamp ad28d293-2165-4f97-b409-52cf2ca25dd8)
  )
  (fp_text user "${REFERENCE}" (at 0.3 0) (layer "F.Fab")
    (effects (font (size 1 1) (thickness 0.15)))
    (tstamp ce7c8b23-0ec5-4a86-88a0-77edc3d3b0d9)
  )
  (fp_circle (center 0 0) (end 4.25 0) (layer "Cmts.User") (width 0.15) (fill none) (tstamp 897fb889-6c60-4cd1-969d-dce822550519))
  (fp_circle (center 0 0) (end 4.5 0) (layer "F.CrtYd") (width 0.05) (fill none) (tstamp 1cb7e91e-4ff9-405d-9010-16b496b931a9))
  (pad "1" thru_hole circle (at 0 0) (size 5.7 5.7) (drill 5.3) (layers *.Cu *.Mask) (tstamp 112ee0e8-21a0-4421-9777-54aa3e04c7eb))
  (pad "1" connect circle (at 0 0) (size 8.5 8.5) (layers "F.Cu" "F.Mask") (tstamp 85effda0-baf4-44ca-a70a-aa4a3b41fcb0))
)
