(footprint "MountingHole_2.7mm_Pad_TopBottom" (version 20211014) (generator pcbnew)
  (layer "F.Cu")
  (tedit 56D1B4CB)
  (descr "Mounting Hole 2.7mm")
  (tags "mounting hole 2.7mm")
  (attr exclude_from_pos_files exclude_from_bom)
  (fp_text reference "REF**" (at 0 -3.7) (layer "F.SilkS")
    (effects (font (size 1 1) (thickness 0.15)))
    (tstamp 2617e06e-ca27-40a5-b9c5-dd2c8de7a01b)
  )
  (fp_text value "MountingHole_2.7mm_Pad_TopBottom" (at 0 3.7) (layer "F.Fab")
    (effects (font (size 1 1) (thickness 0.15)))
    (tstamp 9dddba43-e7d4-4ede-8eb8-9e8764c6f14a)
  )
  (fp_text user "${REFERENCE}" (at 0.3 0) (layer "F.Fab")
    (effects (font (size 1 1) (thickness 0.15)))
    (tstamp 1ba00254-0c68-4e4f-8a08-e181dca0aa1c)
  )
  (fp_circle (center 0 0) (end 2.7 0) (layer "Cmts.User") (width 0.15) (fill none) (tstamp 0e6f28b5-3c8d-47ff-9b38-286f141678dc))
  (fp_circle (center 0 0) (end 2.95 0) (layer "F.CrtYd") (width 0.05) (fill none) (tstamp d1ca0bde-488e-4205-9538-029ed98b901b))
  (pad "1" thru_hole circle (at 0 0) (size 3.1 3.1) (drill 2.7) (layers *.Cu *.Mask) (tstamp 2c5c8668-10a4-43ef-89b0-5e14fc613991))
  (pad "1" connect circle (at 0 0) (size 5.4 5.4) (layers "F.Cu" "F.Mask") (tstamp 68df0d75-da4b-4cc0-aea1-c4b44e1e6581))
  (pad "1" connect circle (at 0 0) (size 5.4 5.4) (layers "B.Cu" "B.Mask") (tstamp 87b7b366-57dd-4e09-9547-abfcf2ee4255))
)
