(footprint "MountingHole_2.2mm_M2_ISO14580_Pad_TopBottom" (version 20211014) (generator pcbnew)
  (layer "F.Cu")
  (tedit 56D1B4CB)
  (descr "Mounting Hole 2.2mm, M2, ISO14580")
  (tags "mounting hole 2.2mm m2 iso14580")
  (attr exclude_from_pos_files exclude_from_bom)
  (fp_text reference "REF**" (at 0 -2.9) (layer "F.SilkS")
    (effects (font (size 1 1) (thickness 0.15)))
    (tstamp 2686e615-9167-42a3-9da9-f6233428934e)
  )
  (fp_text value "MountingHole_2.2mm_M2_ISO14580_Pad_TopBottom" (at 0 2.9) (layer "F.Fab")
    (effects (font (size 1 1) (thickness 0.15)))
    (tstamp 923bca73-8287-4871-a9ef-fffe7d6e23e3)
  )
  (fp_text user "${REFERENCE}" (at 0.3 0) (layer "F.Fab")
    (effects (font (size 1 1) (thickness 0.15)))
    (tstamp 5474fe8f-f744-497c-8aa5-f6f8c8ce80e7)
  )
  (fp_circle (center 0 0) (end 1.9 0) (layer "Cmts.User") (width 0.15) (fill none) (tstamp 0a020fb3-2c58-4056-8184-d09863666d89))
  (fp_circle (center 0 0) (end 2.15 0) (layer "F.CrtYd") (width 0.05) (fill none) (tstamp 05d7a6c9-334e-436c-a3c9-6916f94b99db))
  (pad "1" connect circle (at 0 0) (size 3.8 3.8) (layers "F.Cu" "F.Mask") (tstamp 3a5a5343-6200-4e61-bbd8-67e6b77691af))
  (pad "1" connect circle (at 0 0) (size 3.8 3.8) (layers "B.Cu" "B.Mask") (tstamp 8f7fb55f-db51-4a62-a431-a5c4a6bc5afc))
  (pad "1" thru_hole circle (at 0 0) (size 2.6 2.6) (drill 2.2) (layers *.Cu *.Mask) (tstamp ae72eb27-54ee-425c-bb2e-2d72f68a2974))
)
