(footprint "MountingHole_6.4mm_M6_Pad_TopOnly" (version 20211014) (generator pcbnew)
  (layer "F.Cu")
  (tedit 56D1B4CB)
  (descr "Mounting Hole 6.4mm, M6")
  (tags "mounting hole 6.4mm m6")
  (attr exclude_from_pos_files exclude_from_bom)
  (fp_text reference "REF**" (at 0 -7.4) (layer "F.SilkS")
    (effects (font (size 1 1) (thickness 0.15)))
    (tstamp b4dc358f-3fe3-4833-9519-4e887e26d142)
  )
  (fp_text value "MountingHole_6.4mm_M6_Pad_TopOnly" (at 0 7.4) (layer "F.Fab")
    (effects (font (size 1 1) (thickness 0.15)))
    (tstamp 96a57576-e0aa-4273-bd9c-383ad7c76a51)
  )
  (fp_text user "${REFERENCE}" (at 0.3 0) (layer "F.Fab")
    (effects (font (size 1 1) (thickness 0.15)))
    (tstamp 6e6f4aa0-1e68-4f08-9835-a1974a5f0838)
  )
  (fp_circle (center 0 0) (end 6.4 0) (layer "Cmts.User") (width 0.15) (fill none) (tstamp 128cb564-1953-4e27-836b-6df70160a1ef))
  (fp_circle (center 0 0) (end 6.65 0) (layer "F.CrtYd") (width 0.05) (fill none) (tstamp 4dda1633-9dba-4ff8-9b38-6c19ff3dcba0))
  (pad "1" thru_hole circle (at 0 0) (size 6.8 6.8) (drill 6.4) (layers *.Cu *.Mask) (tstamp 0118bbfa-840d-4538-93c2-86ed7bfd8bb9))
  (pad "1" connect circle (at 0 0) (size 12.8 12.8) (layers "F.Cu" "F.Mask") (tstamp f441e0de-249b-4271-8a48-c458376e7a29))
)
