(footprint "MountingHole_5mm_Pad_TopOnly" (version 20211014) (generator pcbnew)
  (layer "F.Cu")
  (tedit 56D1B4CB)
  (descr "Mounting Hole 5mm")
  (tags "mounting hole 5mm")
  (attr exclude_from_pos_files exclude_from_bom)
  (fp_text reference "REF**" (at 0 -6) (layer "F.SilkS")
    (effects (font (size 1 1) (thickness 0.15)))
    (tstamp 8920def8-2107-4122-9dc6-73ca756ba21d)
  )
  (fp_text value "MountingHole_5mm_Pad_TopOnly" (at 0 6) (layer "F.Fab")
    (effects (font (size 1 1) (thickness 0.15)))
    (tstamp 75f44a62-b9db-49ae-8632-6f1bcc28c86d)
  )
  (fp_text user "${REFERENCE}" (at 0.3 0) (layer "F.Fab")
    (effects (font (size 1 1) (thickness 0.15)))
    (tstamp b407114c-53e6-4222-8a8b-711652ac2c3d)
  )
  (fp_circle (center 0 0) (end 5 0) (layer "Cmts.User") (width 0.15) (fill none) (tstamp e9a83b5e-af52-42b3-82eb-2c46ac25d001))
  (fp_circle (center 0 0) (end 5.25 0) (layer "F.CrtYd") (width 0.05) (fill none) (tstamp 02018d84-8d40-428b-92dd-a698248c0e11))
  (pad "1" thru_hole circle (at 0 0) (size 5.4 5.4) (drill 5) (layers *.Cu *.Mask) (tstamp 336ff6ef-d0e1-4ab1-a8b5-aed90338d5db))
  (pad "1" connect circle (at 0 0) (size 10 10) (layers "F.Cu" "F.Mask") (tstamp fa0c4409-966b-4220-aa28-1780721f7bad))
)
