(footprint "MountingHole_2.7mm_Pad_Via" (version 20211014) (generator pcbnew)
  (layer "F.Cu")
  (tedit 56DDBBFF)
  (descr "Mounting Hole 2.7mm")
  (tags "mounting hole 2.7mm")
  (attr exclude_from_pos_files exclude_from_bom)
  (fp_text reference "REF**" (at 0 -3.7) (layer "F.SilkS")
    (effects (font (size 1 1) (thickness 0.15)))
    (tstamp 681ab485-414d-4500-bf88-5f08671d5c0a)
  )
  (fp_text value "MountingHole_2.7mm_Pad_Via" (at 0 3.7) (layer "F.Fab")
    (effects (font (size 1 1) (thickness 0.15)))
    (tstamp 68faeb32-9a9c-4626-874a-84e84a473557)
  )
  (fp_text user "${REFERENCE}" (at 0.3 0) (layer "F.Fab")
    (effects (font (size 1 1) (thickness 0.15)))
    (tstamp ff590485-5a20-4a7a-8c29-65817db9defa)
  )
  (fp_circle (center 0 0) (end 2.7 0) (layer "Cmts.User") (width 0.15) (fill none) (tstamp 6518fb3d-fc76-40a3-9f8a-df26a85375c8))
  (fp_circle (center 0 0) (end 2.95 0) (layer "F.CrtYd") (width 0.05) (fill none) (tstamp 0d4e0422-e6f3-4647-873d-0ec4c0eab772))
  (pad "1" thru_hole circle (at 2.025 0) (size 0.8 0.8) (drill 0.5) (layers *.Cu *.Mask) (tstamp 17327160-9a36-4a92-a47e-b6c4d56efaca))
  (pad "1" thru_hole circle (at 0 2.025) (size 0.8 0.8) (drill 0.5) (layers *.Cu *.Mask) (tstamp 33cf5d2c-9475-4b37-9ece-fb558e6c2b18))
  (pad "1" thru_hole circle (at 1.431891 1.431891) (size 0.8 0.8) (drill 0.5) (layers *.Cu *.Mask) (tstamp 3dada848-81a3-4bdd-a69c-76e44530f33b))
  (pad "1" thru_hole circle (at 0 0) (size 5.4 5.4) (drill 2.7) (layers *.Cu *.Mask) (tstamp 8c271256-c472-4655-915f-613209ae42db))
  (pad "1" thru_hole circle (at 0 -2.025) (size 0.8 0.8) (drill 0.5) (layers *.Cu *.Mask) (tstamp c59145cf-cdcd-4985-b58c-e389cc38b6ad))
  (pad "1" thru_hole circle (at -1.431891 1.431891) (size 0.8 0.8) (drill 0.5) (layers *.Cu *.Mask) (tstamp d4e72c41-837d-4b7d-b6f9-91d5eef06eba))
  (pad "1" thru_hole circle (at 1.431891 -1.431891) (size 0.8 0.8) (drill 0.5) (layers *.Cu *.Mask) (tstamp de8014fe-e88a-4243-bbc3-f89ba3ff6537))
  (pad "1" thru_hole circle (at -2.025 0) (size 0.8 0.8) (drill 0.5) (layers *.Cu *.Mask) (tstamp eb043d20-0b9f-4bd7-aeed-79e4b4eb716c))
  (pad "1" thru_hole circle (at -1.431891 -1.431891) (size 0.8 0.8) (drill 0.5) (layers *.Cu *.Mask) (tstamp f272759e-cdec-48fa-bcbf-9cbf1dec9cff))
)
