(footprint "MountingHole_5.3mm_M5_ISO14580" (version 20211014) (generator pcbnew)
  (layer "F.Cu")
  (tedit 56D1B4CB)
  (descr "Mounting Hole 5.3mm, no annular, M5, ISO14580")
  (tags "mounting hole 5.3mm no annular m5 iso14580")
  (attr exclude_from_pos_files exclude_from_bom)
  (fp_text reference "REF**" (at 0 -5.25) (layer "F.SilkS")
    (effects (font (size 1 1) (thickness 0.15)))
    (tstamp f3efbae3-ac67-4efb-9937-2d6205de5d61)
  )
  (fp_text value "MountingHole_5.3mm_M5_ISO14580" (at 0 5.25) (layer "F.Fab")
    (effects (font (size 1 1) (thickness 0.15)))
    (tstamp b8154477-7eaa-4233-a49f-57db60873053)
  )
  (fp_text user "${REFERENCE}" (at 0.3 0) (layer "F.Fab")
    (effects (font (size 1 1) (thickness 0.15)))
    (tstamp f5e8d5ec-4d9e-4a02-b361-8474cc606e74)
  )
  (fp_circle (center 0 0) (end 4.25 0) (layer "Cmts.User") (width 0.15) (fill none) (tstamp 0a349a6f-057b-4de3-8a0f-124e6e86d94f))
  (fp_circle (center 0 0) (end 4.5 0) (layer "F.CrtYd") (width 0.05) (fill none) (tstamp 4f08edbc-67bd-4702-ac8e-b291986c9b42))
  (pad "" np_thru_hole circle (at 0 0) (size 5.3 5.3) (drill 5.3) (layers *.Cu *.Mask) (tstamp aed5a331-f8f3-4d60-8608-54c5302f53fd))
)
