(footprint "MountingHole_3.2mm_M3_ISO14580_Pad_TopBottom" (version 20211014) (generator pcbnew)
  (layer "F.Cu")
  (tedit 56D1B4CB)
  (descr "Mounting Hole 3.2mm, M3, ISO14580")
  (tags "mounting hole 3.2mm m3 iso14580")
  (attr exclude_from_pos_files exclude_from_bom)
  (fp_text reference "REF**" (at 0 -3.75) (layer "F.SilkS")
    (effects (font (size 1 1) (thickness 0.15)))
    (tstamp 270d0371-a9f9-450e-93b5-a226af3a8fcd)
  )
  (fp_text value "MountingHole_3.2mm_M3_ISO14580_Pad_TopBottom" (at 0 3.75) (layer "F.Fab")
    (effects (font (size 1 1) (thickness 0.15)))
    (tstamp 5ed4637c-fa30-4f72-b78d-65172d0eada8)
  )
  (fp_text user "${REFERENCE}" (at 0.3 0) (layer "F.Fab")
    (effects (font (size 1 1) (thickness 0.15)))
    (tstamp 63d90805-94a4-4868-a563-90361aa3dba7)
  )
  (fp_circle (center 0 0) (end 2.75 0) (layer "Cmts.User") (width 0.15) (fill none) (tstamp 334797d7-2f04-4125-827c-960acf524df4))
  (fp_circle (center 0 0) (end 3 0) (layer "F.CrtYd") (width 0.05) (fill none) (tstamp 822f91f7-9599-4844-841c-11ab85af83e4))
  (pad "1" connect circle (at 0 0) (size 5.5 5.5) (layers "B.Cu" "B.Mask") (tstamp 4063bd6d-877c-483d-b57f-aa4d6bdb278b))
  (pad "1" connect circle (at 0 0) (size 5.5 5.5) (layers "F.Cu" "F.Mask") (tstamp 875e4ab7-6d02-4966-aaad-9fa47a4df7ab))
  (pad "1" thru_hole circle (at 0 0) (size 3.6 3.6) (drill 3.2) (layers *.Cu *.Mask) (tstamp c443f969-946e-425c-a801-3adb8313ee2c))
)
