(footprint "MountingHole_4mm" (version 20211014) (generator pcbnew)
  (layer "F.Cu")
  (tedit 56D1B4CB)
  (descr "Mounting Hole 4mm, no annular")
  (tags "mounting hole 4mm no annular")
  (attr exclude_from_pos_files exclude_from_bom)
  (fp_text reference "REF**" (at 0 -5) (layer "F.SilkS")
    (effects (font (size 1 1) (thickness 0.15)))
    (tstamp c6be25f7-6e92-4512-9a6a-e3c10038878f)
  )
  (fp_text value "MountingHole_4mm" (at 0 5) (layer "F.Fab")
    (effects (font (size 1 1) (thickness 0.15)))
    (tstamp b7e21c3b-4c12-49cc-a200-050a0bb79661)
  )
  (fp_text user "${REFERENCE}" (at 0.3 0) (layer "F.Fab")
    (effects (font (size 1 1) (thickness 0.15)))
    (tstamp 8cd929c7-1577-405f-b978-2398aacdf530)
  )
  (fp_circle (center 0 0) (end 4 0) (layer "Cmts.User") (width 0.15) (fill none) (tstamp 73c6aceb-68cb-4ad0-9786-af23d1c6d320))
  (fp_circle (center 0 0) (end 4.25 0) (layer "F.CrtYd") (width 0.05) (fill none) (tstamp f53d8454-aeb0-447b-9bd1-248cd9b6cf22))
  (pad "" np_thru_hole circle (at 0 0) (size 4 4) (drill 4) (layers *.Cu *.Mask) (tstamp a72a86b0-1888-41fa-b985-cbbdddb27662))
)
