(footprint "MountingHole_6mm_Pad" (version 20211014) (generator pcbnew)
  (layer "F.Cu")
  (tedit 56D1B4CB)
  (descr "Mounting Hole 6mm")
  (tags "mounting hole 6mm")
  (attr exclude_from_pos_files exclude_from_bom)
  (fp_text reference "REF**" (at 0 -7) (layer "F.SilkS")
    (effects (font (size 1 1) (thickness 0.15)))
    (tstamp e7da8787-4ee4-4b87-8620-f9af242d2196)
  )
  (fp_text value "MountingHole_6mm_Pad" (at 0 7) (layer "F.Fab")
    (effects (font (size 1 1) (thickness 0.15)))
    (tstamp db474fb6-75a2-450a-8f53-4e6a701afc51)
  )
  (fp_text user "${REFERENCE}" (at 0.3 0) (layer "F.Fab")
    (effects (font (size 1 1) (thickness 0.15)))
    (tstamp 3b1a6d78-ecf1-47f6-85be-977dfc312516)
  )
  (fp_circle (center 0 0) (end 6 0) (layer "Cmts.User") (width 0.15) (fill none) (tstamp ddd9b5d1-c19a-4877-b992-af75492d2cb2))
  (fp_circle (center 0 0) (end 6.25 0) (layer "F.CrtYd") (width 0.05) (fill none) (tstamp d5591003-a9db-4e77-9b6f-4b4f5b473692))
  (pad "1" thru_hole circle (at 0 0) (size 12 12) (drill 6) (layers *.Cu *.Mask) (tstamp 7e6a2906-57a3-4f14-8e98-43c4faab7713))
)
