(footprint "MountingHole_2.2mm_M2_ISO14580_Pad_TopOnly" (version 20211014) (generator pcbnew)
  (layer "F.Cu")
  (tedit 56D1B4CB)
  (descr "Mounting Hole 2.2mm, M2, ISO14580")
  (tags "mounting hole 2.2mm m2 iso14580")
  (attr exclude_from_pos_files exclude_from_bom)
  (fp_text reference "REF**" (at 0 -2.9) (layer "F.SilkS")
    (effects (font (size 1 1) (thickness 0.15)))
    (tstamp 29bd08b2-7a14-42f0-8e00-2c4596c1fabc)
  )
  (fp_text value "MountingHole_2.2mm_M2_ISO14580_Pad_TopOnly" (at 0 2.9) (layer "F.Fab")
    (effects (font (size 1 1) (thickness 0.15)))
    (tstamp c4e91bcc-5c88-4a2e-a614-ebb8146b201e)
  )
  (fp_text user "${REFERENCE}" (at 0.3 0) (layer "F.Fab")
    (effects (font (size 1 1) (thickness 0.15)))
    (tstamp daa61aa6-00c1-43c8-9daf-6780820052c0)
  )
  (fp_circle (center 0 0) (end 1.9 0) (layer "Cmts.User") (width 0.15) (fill none) (tstamp 47aadaf5-f145-411e-9753-91b2d83da40b))
  (fp_circle (center 0 0) (end 2.15 0) (layer "F.CrtYd") (width 0.05) (fill none) (tstamp dab7cea0-3b9e-4738-8464-710f99b462ce))
  (pad "1" thru_hole circle (at 0 0) (size 2.6 2.6) (drill 2.2) (layers *.Cu *.Mask) (tstamp 8a4c4bb3-7b3d-4432-ab6c-4fc47076f637))
  (pad "1" connect circle (at 0 0) (size 3.8 3.8) (layers "F.Cu" "F.Mask") (tstamp eec8fd63-6631-48fa-98f7-f871ae242da6))
)
