(footprint "MountingHole_5.3mm_M5_ISO7380_Pad_TopOnly" (version 20211014) (generator pcbnew)
  (layer "F.Cu")
  (tedit 56D1B4CB)
  (descr "Mounting Hole 5.3mm, M5, ISO7380")
  (tags "mounting hole 5.3mm m5 iso7380")
  (attr exclude_from_pos_files exclude_from_bom)
  (fp_text reference "REF**" (at 0 -5.75) (layer "F.SilkS")
    (effects (font (size 1 1) (thickness 0.15)))
    (tstamp faf0e6f1-9737-4f30-930f-1c01cf44ae3c)
  )
  (fp_text value "MountingHole_5.3mm_M5_ISO7380_Pad_TopOnly" (at 0 5.75) (layer "F.Fab")
    (effects (font (size 1 1) (thickness 0.15)))
    (tstamp 4dc2b91d-fb83-4989-b848-63167c091825)
  )
  (fp_text user "${REFERENCE}" (at 0.3 0) (layer "F.Fab")
    (effects (font (size 1 1) (thickness 0.15)))
    (tstamp 52598e6c-c7a3-4b14-b2e1-d9a07131cfa1)
  )
  (fp_circle (center 0 0) (end 4.75 0) (layer "Cmts.User") (width 0.15) (fill none) (tstamp cd069e3b-a365-4091-9312-3266c379d82b))
  (fp_circle (center 0 0) (end 5 0) (layer "F.CrtYd") (width 0.05) (fill none) (tstamp 2b8ec0f4-2470-4676-a970-a638c53dd1cb))
  (pad "1" connect circle (at 0 0) (size 9.5 9.5) (layers "F.Cu" "F.Mask") (tstamp 0121e954-673a-4e38-95dc-4c48a82d6804))
  (pad "1" thru_hole circle (at 0 0) (size 5.7 5.7) (drill 5.3) (layers *.Cu *.Mask) (tstamp 8bf5e9a8-e0c3-4468-931e-5540d1266fe2))
)
